module optrispace.com/work

go 1.18

require (
	github.com/ethereum/go-ethereum v1.10.25
	github.com/getsentry/sentry-go v0.13.0
	github.com/go-playground/validator/v10 v10.11.1
	github.com/go-telegram-bot-api/telegram-bot-api/v5 v5.5.1
	github.com/jaswdr/faker v1.15.0
	github.com/labstack/echo/v4 v4.9.0
	github.com/lib/pq v1.10.7
	github.com/lithammer/shortuuid/v4 v4.0.0
	github.com/mitchellh/go-homedir v1.1.0
	github.com/mitchellh/mapstructure v1.5.0
	github.com/rs/zerolog v1.28.0
	github.com/shopspring/decimal v1.3.1
	github.com/spf13/cobra v1.5.0
	github.com/spf13/viper v1.13.0
	github.com/stretchr/testify v1.8.0
	github.com/swaggo/echo-swagger v1.3.4
	github.com/swaggo/swag v1.8.6
	golang.org/x/crypto v0.0.0-20220829220503-c86fa9a7ed90
)

require (
	github.com/KyleBanks/depth v1.2.1 // indirect
	github.com/btcsuite/btcd/btcec/v2 v2.2.1 // indirect
	github.com/davecgh/go-spew v1.1.1 // indirect
	github.com/deckarep/golang-set v1.8.0 // indirect
	github.com/decred/dcrd/dcrec/secp256k1/v4 v4.1.0 // indirect
	github.com/fsnotify/fsnotify v1.5.4 // indirect
	github.com/go-ole/go-ole v1.2.6 // indirect
	github.com/go-openapi/jsonpointer v0.19.5 // indirect
	github.com/go-openapi/jsonreference v0.20.0 // indirect
	github.com/go-openapi/spec v0.20.7 // indirect
	github.com/go-openapi/swag v0.22.3 // indirect
	github.com/go-playground/locales v0.14.0 // indirect
	github.com/go-playground/universal-translator v0.18.0 // indirect
	github.com/go-stack/stack v1.8.1 // indirect
	github.com/golang-jwt/jwt v3.2.2+incompatible // indirect
	github.com/google/uuid v1.3.0 // indirect
	github.com/gorilla/websocket v1.5.0 // indirect
	github.com/hashicorp/hcl v1.0.0 // indirect
	github.com/inconshreveable/mousetrap v1.0.1 // indirect
	github.com/josharian/intern v1.0.0 // indirect
	github.com/labstack/gommon v0.3.1 // indirect
	github.com/leodido/go-urn v1.2.1 // indirect
	github.com/magiconair/properties v1.8.6 // indirect
	github.com/mailru/easyjson v0.7.7 // indirect
	github.com/mattn/go-colorable v0.1.13 // indirect
	github.com/mattn/go-isatty v0.0.16 // indirect
	github.com/pelletier/go-toml v1.9.5 // indirect
	github.com/pelletier/go-toml/v2 v2.0.5 // indirect
	github.com/pmezard/go-difflib v1.0.0 // indirect
	github.com/shirou/gopsutil v3.21.11+incompatible // indirect
	github.com/spf13/afero v1.9.2 // indirect
	github.com/spf13/cast v1.5.0 // indirect
	github.com/spf13/jwalterweatherman v1.1.0 // indirect
	github.com/spf13/pflag v1.0.5 // indirect
	github.com/subosito/gotenv v1.4.1 // indirect
	github.com/swaggo/files v0.0.0-20220728132757-551d4a08d97a // indirect
	github.com/tklauser/go-sysconf v0.3.10 // indirect
	github.com/tklauser/numcpus v0.5.0 // indirect
	github.com/valyala/bytebufferpool v1.0.0 // indirect
	github.com/valyala/fasttemplate v1.2.1 // indirect
	github.com/yusufpapurcu/wmi v1.2.2 // indirect
	golang.org/x/net v0.0.0-20220907135653-1e95f45603a7 // indirect
	golang.org/x/sys v0.0.0-20220908164124-27713097b956 // indirect
	golang.org/x/text v0.3.7 // indirect
	golang.org/x/time v0.0.0-20220722155302-e5dcc9cfc0b9 // indirect
	golang.org/x/tools v0.1.12 // indirect
	gopkg.in/ini.v1 v1.67.0 // indirect
	gopkg.in/natefinch/npipe.v2 v2.0.0-20160621034901-c1b8fa8bdcce // indirect
	gopkg.in/yaml.v2 v2.4.0 // indirect
	gopkg.in/yaml.v3 v3.0.1 // indirect
)
